# grouping works as expected

    Code
      subsetGroupCols(site)
    Output
      # A tibble: 176 x 1
         GroupID
         <chr>  
       1 154    
       2 150    
       3 25     
       4 120    
       5 86     
       6 56     
       7 140    
       8 77     
       9 92     
      10 155    
      # ... with 166 more rows
…
---

    Code
      subsetGroupCols(customGroup)
    Output
      # A tibble: 176 x 1
         GroupID
         <chr>  
       1 0X090  
       2 0X054  
       3 0X041  
       4 0X169  
       5 0X035  
       6 0X014  
       7 0X161  
       8 0X122  
       9 0X026  
      10 0X125  
      # ... with 166 more rows
…
