…
---

    Code
      names(output$lCharts)
    Output
      [1] "barMetric"   "barScore"    "barMetricJS" "barScoreJS" 

# grouping works as expected

    Code
      subsetGroupCols(site)
    Output
      # A tibble: 40 x 1
         GroupID
         <chr>  
       1 139    
       2 173    
       3 189    
       4 29     
       5 43     
       6 5      
       7 58     
       8 62     
       9 8      
      10 91     
      # ... with 30 more rows
…
---

    Code
      subsetGroupCols(customGroup)
    Output
      # A tibble: 40 x 1
         GroupID
         <chr>  
       1 0X023  
       2 0X052  
       3 0X091  
       4 0X093  
       5 0X116  
       6 0X124  
       7 0X154  
       8 0X159  
       9 0X167  
      10 0X175  
      # ... with 30 more rows
…
