…
      $kri0007$site
      # A tibble: 103 x 5
      # Groups:   Site ID [75]
         `Site ID` Metric                         Total `%`   Percent
         <chr>     <chr>                          <int> <chr>   <dbl>
       1 166       out of bound:Withdrew Consent*     3 75%        75
       2 26        out of bound:Withdrew Consent*     3 100%      100
       3 114       out of bound:Withdrew Consent*     2 100%      100
       4 140       out of bound:Withdrew Consent*     2 40%        40
       5 43        out of bound:Withdrew Consent*     2 50%        50
       6 52        ADVERSE EVENT                      2 100%      100
       7 77        LOST TO FOLLOW-UP                  2 50%        50
       8 77        out of bound:Withdrew Consent*     2 50%        50
       9 86        out of bound:Withdrew Consent*     2 100%      100
      10 10        NON-COMPLIANCE WITH STUDY DRUG     1 50%        50
      # i 93 more rows
