# grouping works as expected

    Code
      subsetGroupCols(site)
    Output
      # A tibble: 40 x 1
         GroupID
         <chr>  
       1 127    
       2 128    
       3 43     
       4 58     
       5 109    
       6 114    
       7 118    
       8 122    
       9 139    
      10 140    
      # ... with 30 more rows
…
---

    Code
      subsetGroupCols(customGroup)
    Output
      # A tibble: 40 x 1
         GroupID
         <chr>  
       1 0X043  
       2 0X149  
       3 0X091  
       4 0X159  
       5 0X002  
       6 0X014  
       7 0X016  
       8 0X018  
       9 0X020  
      10 0X023  
      # ... with 30 more rows
…
