…
---

    Code
      names(output$lCharts)
    Output
      [1] "barMetric"   "barScore"    "barMetricJS" "barScoreJS" 

# grouping works as expected

    Code
      subsetGroupCols(site)
    Output
      # A tibble: 40 x 1
         GroupID
         <chr>  
       1 109    
       2 114    
       3 118    
       4 122    
       5 127    
       6 128    
       7 139    
       8 140    
       9 143    
      10 144    
      # ... with 30 more rows
…
---

    Code
      subsetGroupCols(customGroup)
    Output
      # A tibble: 40 x 1
         GroupID
         <chr>  
       1 0X002  
       2 0X014  
       3 0X016  
       4 0X018  
       5 0X020  
       6 0X023  
       7 0X027  
       8 0X039  
       9 0X043  
      10 0X049  
      # ... with 30 more rows
…
