…
---

    Code
      names(output$lCharts)
    Output
      [1] "scatter"     "scatterJS"   "barMetric"   "barScore"    "barMetricJS"
      [6] "barScoreJS" 

# grouping works as expected

    Code
      subsetGroupCols(site)
    Output
      # A tibble: 40 x 1
         GroupID
         <chr>  
       1 68     
       2 114    
       3 75     
       4 122    
       5 15     
       6 172    
       7 34     
       8 139    
       9 173    
      10 109    
      # ... with 30 more rows
…
---

    Code
      subsetGroupCols(customGroup)
    Output
      # A tibble: 40 x 1
         GroupID
         <chr>  
       1 0X155  
       2 0X016  
       3 0X027  
       4 0X018  
       5 0X039  
       6 0X163  
       7 0X082  
       8 0X052  
       9 0X124  
      10 0X127  
      # ... with 30 more rows
…
