# Report_FlagOverTime returns the expected object

    Code
      names(x)
    Output
       [1] "_data"          "_boxhead"       "_stub_df"       "_row_groups"   
       [5] "_heading"       "_spanners"      "_stubhead"      "_footnotes"    
       [9] "_source_notes"  "_formats"       "_substitutions" "_styles"       
      [13] "_summary"       "_options"       "_transforms"    "_locale"       
      [17] "_has_built"    
    Code
      dplyr::as_tibble(x$`_styles`)
    Output
      # A tibble: 108 x 7
         locname grpname colname    locnum rownum colnum styles    
         <chr>   <chr>   <chr>       <dbl>  <int>  <int> <list>    
       1 data    <NA>    2012-05-31      5      1     NA <cll_styl>
       2 data    <NA>    2012-05-31      5      2     NA <cll_styl>
       3 data    <NA>    2012-05-31      5      3     NA <cll_styl>
       4 data    <NA>    2012-05-31      5      4     NA <cll_styl>
       5 data    <NA>    2012-05-31      5      5     NA <cll_styl>
       6 data    <NA>    2012-05-31      5      6     NA <cll_styl>
       7 data    <NA>    2012-05-31      5      1     NA <cll_styl>
       8 data    <NA>    2012-05-31      5      2     NA <cll_styl>
       9 data    <NA>    2012-05-31      5      3     NA <cll_styl>
      10 data    <NA>    2012-05-31      5      4     NA <cll_styl>
      # i 98 more rows
…
