…
      $dfCONSENT
      # A tibble: 3 x 4
        subjid conscat     consyn consdt
        <chr>  <chr>       <chr>  <chr> 
      1 0001   MAINCONSENT Y      <NA>  
      2 0002   MAINCONSENT Y      17259 
      3 0003   MAINCONSENT Y      13217 
      
      $dfIE
      # A tibble: 71 x 4
         subjid iecat ieorres tiver
         <chr>  <chr>   <dbl> <chr>
       1 0001   INCL        0 A2   
       2 0001   INCL        0 A2   
       3 0001   INCL        0 A2   
       4 0001   INCL        0 A2   
       5 0001   INCL        0 A2   
       6 0001   INCL        0 A2   
       7 0001   INCL        0 A2   
       8 0001   INCL        0 A2   
       9 0001   INCL        0 A2   
      10 0001   INCL        0 A2   
      # ... with 61 more rows
      $dfSTUDCOMP
      # A tibble: 1 x 3
        subjid compreas              compyn
        <chr>  <chr>                 <chr> 
      1 0002   WITHDRAWAL BY SUBJECT N     
      
      $dfSDRGCOMP
      # A tibble: 2 x 4
        subjid datapagename                  sdrgreas                       sdrgyn
        <chr>  <chr>                         <chr>                          <chr> 
      1 0002   Blinded Study Drug Completion out of bound:Withdrew Consent* N     
      2 0003   Blinded Study Drug Completion <NA>                           Y     
      
      $dfLB
      # A tibble: 150 x 8
         subjid visnam    visnum battrnam                  lbtst~1  siresn lb_te toxgr
         <chr>  <chr>      <dbl> <chr>                     <chr>     <dbl> <chr> <chr>
       1 0001   Screening    -10 CHEMISTRY PANEL           ALT (S~ 5.9 e+1 <NA>  1    
       2 0001   Screening    -10 CHEMISTRY PANEL           AST (S~ 4.5 e+1 <NA>  1    
       3 0001   Screening    -10 CHEMISTRY PANEL           Albumi~ 4.4 e+1 <NA>  0    
       4 0001   Screening    -10 CHEMISTRY PANEL           Alkali~ 7.8 e+1 <NA>  0    
       5 0001   Screening    -10 HEMATOLOGY&DIFFERENTIAL ~ Basoph~ 2.00e-2 <NA>  <NA> 
       6 0001   Screening    -10 HEMATOLOGY&DIFFERENTIAL ~ Basoph~ 3.00e-1 <NA>  <NA> 
       7 0001   Screening    -10 CHEMISTRY PANEL           Calciu~ 2.25e+0 <NA>  <NA> 
       8 0001   Screening    -10 CHEMISTRY PANEL           Calciu~ 2.25e+0 <NA>  <NA> 
       9 0001   Screening    -10 CHEMISTRY PANEL           Choles~ 5.44e+0 <NA>  1    
      10 0001   Screening    -10 CHEMISTRY PANEL           Creati~ 1.17e+2 <NA>  0    
      # ... with 140 more rows, and abbreviated variable name 1: lbtstnam
…
