# Study_Report function works as expected

    Code
      lData
    Output
      $dfSUBJ
      # A tibble: 1,301 x 48
         studyid        siteid invid scrnid subjid subjectid   datapagename datapageid
         <chr>          <chr>  <chr> <chr>  <chr>  <chr>       <chr>        <chr>     
       1 AA-AA-000-0000 5      0X167 113    0496   X1670496-1~ Demographics 1         
       2 AA-AA-000-0000 78     0X002 142    1350   X0021350-1~ Demographics 1         
       3 AA-AA-000-0000 139    0X052 112    0539   X0520539-1~ Demographics 1         
       4 AA-AA-000-0000 162    0X049 142    0329   X0490329-1~ Demographics 1         
       5 AA-AA-000-0000 29     0X116 069    0429   X1160429-0~ Demographics 1         
       6 AA-AA-000-0000 143    0X153 073    1218   X1531218-0~ Demographics 1         
       7 AA-AA-000-0000 173    0X124 145    0808   X1240808-1~ Demographics 1         
       8 AA-AA-000-0000 189    0X093 087    1314   X0931314-0~ Demographics 1         
       9 AA-AA-000-0000 58     0X091 020    1236   X0911236-0~ Demographics 1         
      10 AA-AA-000-0000 167    0X059 061    0163   X0590163-0~ Demographics 1         
      # i 1,291 more rows
      # i 40 more variables: foldername <chr>, instancename <chr>, recordid <chr>,
      #   record_dt <chr>, recordposition <dbl>, mincreated_dts <chr>,
      #   maxupdated_dts <chr>, brthdat <chr>, agerep <chr>, sex <chr>, ethnic <chr>,
      #   race <chr>, raceoth <chr>, racescat <chr>, racesoth <chr>,
      #   subjid_nsv <chr>, scrnid_nsv <chr>, subjinit_nsv <chr>, invid_nsv <chr>,
      #   subject_nsv <chr>, instanceid_nsv <dbl>, folder_nsv <chr>, ...
      
      $dfAE
      # A tibble: 4,854 x 127
         studyid        siteid invid scrnid subjid subjectid   datapagename datapageid
         <chr>          <chr>  <chr> <chr>  <chr>  <chr>       <chr>        <chr>     
       1 AA-AA-000-0000 5      0X167 113    0496   X1670496-1~ Adverse Eve~ 1         
       2 AA-AA-000-0000 5      0X167 113    0496   X1670496-1~ Adverse Eve~ 1         
       3 AA-AA-000-0000 78     0X002 142    1350   X0021350-1~ Adverse Eve~ 1         
       4 AA-AA-000-0000 78     0X002 142    1350   X0021350-1~ Adverse Eve~ 1         
       5 AA-AA-000-0000 78     0X002 142    1350   X0021350-1~ Adverse Eve~ 1         
       6 AA-AA-000-0000 78     0X002 142    1350   X0021350-1~ Adverse Eve~ 1         
       7 AA-AA-000-0000 78     0X002 142    1350   X0021350-1~ Adverse Eve~ 1         
       8 AA-AA-000-0000 78     0X002 142    1350   X0021350-1~ Adverse Eve~ 1         
       9 AA-AA-000-0000 78     0X002 142    1350   X0021350-1~ Adverse Eve~ 1         
      10 AA-AA-000-0000 78     0X002 142    1350   X0021350-1~ Adverse Eve~ 1         
      # i 4,844 more rows
      # i 119 more variables: foldername <chr>, instancename <chr>, recordid <chr>,
      #   record_dt <chr>, recordposition <dbl>, mincreated_dts <chr>,
      #   maxupdated_dts <chr>, aeterm <chr>, aeser <chr>, aest_dt <date>,
      #   aeen_dt <date>, aeongo <chr>, aerel <chr>, aerel1 <chr>, aerel2 <chr>,
      #   aerel3 <chr>, aerelprc <chr>, aeacn <chr>, aeacn1 <chr>, aeacn2 <chr>,
      #   aetoxgr <chr>, caseno <chr>, aesdth <chr>, aeslife <chr>, ...
      
      $dfPD
      # A tibble: 4,646 x 4
         subjectenrollmentnumber deviationdate companycategory         deemedimportant
         <chr>                   <date>        <chr>                   <chr>          
       1 0496                    NA            OTHER                   No             
       2 1350                    NA            OTHER                   No             
       3 1350                    NA            OTHER                   No             
       4 1350                    NA            OTHER                   No             
       5 1350                    NA            OTHER                   No             
       6 1350                    NA            OTHER                   No             
       7 0539                    NA            OTHER TREATMENT COMPLI~ No             
       8 0539                    NA            OTHER TREATMENT COMPLI~ No             
       9 0539                    NA            OTHER TREATMENT COMPLI~ No             
      10 0539                    NA            OTHER TREATMENT COMPLI~ No             
      # i 4,636 more rows
      
      $dfCONSENT
      # A tibble: 1,297 x 4
         subjid consdt     conscat     consyn
         <chr>  <date>     <chr>       <chr> 
       1 0496   2013-11-26 MAINCONSENT Y     
       2 1350   2017-10-02 MAINCONSENT Y     
       3 0539   2005-08-31 MAINCONSENT Y     
       4 0329   2007-09-26 MAINCONSENT Y     
       5 0429   2014-08-14 MAINCONSENT Y     
       6 1218   2004-05-23 MAINCONSENT Y     
       7 0808   2010-04-29 MAINCONSENT Y     
       8 1314   2003-10-21 MAINCONSENT Y     
       9 1236   2009-02-08 MAINCONSENT Y     
      10 0163   2015-04-20 MAINCONSENT Y     
      # i 1,287 more rows
…
      $dfLB
      # A tibble: 1,132,070 x 13
         subjid visnam    visnum lb_dt      battrnam    lbtstnam  siresn sinrlo sinrhi
         <chr>  <chr>      <dbl> <date>     <chr>       <chr>      <dbl> <chr>  <chr> 
       1 0496   Screening    -10 2013-11-26 CHEMISTRY ~ ALT (SG~ 2.32e+2 6      43    
       2 0496   Screening    -10 2013-11-26 CHEMISTRY ~ AST (SG~ 7.6 e+1 11     36    
       3 0496   Screening    -10 2013-11-26 CHEMISTRY ~ Albumin~ 4.8 e+1 33     49    
       4 0496   Screening    -10 2013-11-26 CHEMISTRY ~ Alkalin~ 8.4 e+1 31     129   
       5 0496   Screening    -10 2013-11-26 HEMATOLOGY~ Basophi~ 3.00e-2 0.00   0.20  
       6 0496   Screening    -10 2013-11-26 HEMATOLOGY~ Basophi~ 5   e-1 0.0    2.0   
       7 0496   Screening    -10 2013-11-26 CHEMISTRY ~ Calcium~ 2.5 e+0 2.07   2.64  
       8 0496   Screening    -10 2013-11-26 CHEMISTRY ~ Calcium~ 2.5 e+0 2.07   2.64  
       9 0496   Screening    -10 2013-11-26 CHEMISTRY ~ Cholest~ 4.70e+0 3.88   6.83  
      10 0496   Screening    -10 2013-11-26 CHEMISTRY ~ Creatin~ 9.5 e+1 18     198   
      # i 1,132,060 more rows
      # i 4 more variables: toxgrg_nsv <chr>, alrtfl <chr>, treatmentemergent <chr>,
      #   alertsimplified <chr>
      
      $dfSTUDCOMP
      # A tibble: 133 x 31
         studyid        siteid invid scrnid subjid subjectid   datapagename datapageid
         <chr>          <chr>  <chr> <chr>  <chr>  <chr>       <chr>        <chr>     
       1 AA-AA-000-0000 58     0X091 020    1236   X0911236-0~ Study Compl~ 1         
       2 AA-AA-000-0000 128    0X149 123    1023   X1491023-1~ Study Compl~ 1         
       3 AA-AA-000-0000 155    0X125 058    1346   X1251346-0~ Study Compl~ 1         
       4 AA-AA-000-0000 43     0X159 113    0760   X1590760-1~ Study Compl~ 1         
       5 AA-AA-000-0000 127    0X043 058    0854   X0430854-0~ Study Compl~ 1         
       6 AA-AA-000-0000 71     0X083 142    0561   X0830561-1~ Study Compl~ 1         
       7 AA-AA-000-0000 140    0X161 091    0290   X1610290-0~ Study Compl~ 1         
       8 AA-AA-000-0000 53     0X015 142    1127   X0151127-1~ Study Compl~ 1         
       9 AA-AA-000-0000 71     0X083 020    1152   X0831152-0~ Study Compl~ 1         
      10 AA-AA-000-0000 184    0X123 123    0720   X1230720-1~ Study Compl~ 1         
      # i 123 more rows
      # i 23 more variables: foldername <chr>, instancename <chr>, recordid <chr>,
      #   record_dt <chr>, recordposition <dbl>, mincreated_dts <chr>,
      #   maxupdated_dts <chr>, compyn <chr>, compreas <chr>, subjid_nsv <chr>,
      #   scrnid_nsv <chr>, subjinit_nsv <chr>, invid_nsv <chr>, subject_nsv <chr>,
      #   instanceid_nsv <dbl>, folder_nsv <chr>, folderseq_nsv <dbl>,
      #   compyn_std_nsv <chr>, compreas_std_nsv <chr>, compfu_nsv <chr>, ...
      
      $dfSDRGCOMP
      # A tibble: 654 x 36
         studyid        siteid invid scrnid subjid subjectid   datapagename datapageid
         <chr>          <chr>  <chr> <chr>  <chr>  <chr>       <chr>        <chr>     
       1 AA-AA-000-0000 173    0X124 145    0808   X1240808-1~ Blinded Stu~ 1         
       2 AA-AA-000-0000 189    0X093 087    1314   X0931314-0~ Blinded Stu~ 1         
       3 AA-AA-000-0000 58     0X091 020    1236   X0911236-0~ Blinded Stu~ 1         
       4 AA-AA-000-0000 166    0X102 011    0003   X1020003-0~ Blinded Stu~ 1         
       5 AA-AA-000-0000 62     0X023 142    1315   X0231315-1~ Blinded Stu~ 1         
       6 AA-AA-000-0000 109    0X127 016    0788   X1270788-0~ Blinded Stu~ 1         
       7 AA-AA-000-0000 146    0X188 122    0283   X1880283-1~ Blinded Stu~ 1         
       8 AA-AA-000-0000 34     0X082 087    0200   X0820200-0~ Blinded Stu~ 1         
       9 AA-AA-000-0000 128    0X149 123    1023   X1491023-1~ Blinded Stu~ 1         
      10 AA-AA-000-0000 91     0X175 009    0572   X1750572-0~ Blinded Stu~ 1         
      # i 644 more rows
      # i 28 more variables: foldername <chr>, instancename <chr>, recordid <chr>,
      #   record_dt <chr>, recordposition <dbl>, mincreated_dts <chr>,
      #   maxupdated_dts <chr>, sdrgyn <chr>, sdrgreas <chr>, sdrgterm <chr>,
      #   subjid_nsv <chr>, scrnid_nsv <chr>, subjinit_nsv <chr>, invid_nsv <chr>,
      #   subject_nsv <chr>, instanceid_nsv <dbl>, folder_nsv <chr>,
      #   folderseq_nsv <dbl>, sdrgyn_std_nsv <chr>, sdrgreas_std_nsv <chr>, ...
      
      $dfDATACHG
      # A tibble: 2,114,862 x 10
         protocolname   subjectname visit     visit_date formoid   fieldoid log_number
         <chr>          <chr>       <chr>     <date>     <chr>     <chr>         <int>
       1 AA-AA-000-0000 0001-025XXX Screening 2006-09-12 Consents  CONSCAT           1
       2 AA-AA-000-0000 0001-025XXX Screening 2006-09-12 Consents  CONSDAT           1
       3 AA-AA-000-0000 0001-025XXX Screening 2006-09-12 Consents  CONSTYPE          1
       4 AA-AA-000-0000 0001-025XXX Screening 2006-09-12 Consents  CONSYN            1
       5 AA-AA-000-0000 0001-025XXX Screening 2006-09-12 Consents  ENRTIVER          1
       6 AA-AA-000-0000 0001-025XXX Screening 2006-09-12 Consents  ICFVER            1
       7 AA-AA-000-0000 0001-025XXX Screening 2006-09-12 Consents  PROTVER           1
       8 AA-AA-000-0000 0001-025XXX Screening 2006-09-12 Prior an~ CMENDAT           1
       9 AA-AA-000-0000 0001-025XXX Screening 2006-09-12 Prior an~ CMINDC            1
      10 AA-AA-000-0000 0001-025XXX Screening 2006-09-12 Prior an~ CMONGO            1
      # i 2,114,852 more rows
      # i 3 more variables: datapointid <chr>, n_changes <int>, isrequired <int>
      
      $dfDATAENT
      # A tibble: 247,462 x 7
         protocolname   subjectname visit formoid           visit_date min_entereddate
         <chr>          <chr>       <chr> <chr>             <date>     <date>         
       1 AA-AA-000-0000 0001-025XXX Day 1 Enrollment        2006-10-20 2006-10-20     
       2 AA-AA-000-0000 0001-025XXX Day 1 PK                2006-10-20 2006-10-21     
       3 AA-AA-000-0000 0001-025XXX Day 1 Prior and Concom~ 2006-10-20 2006-10-27     
       4 AA-AA-000-0000 0001-025XXX Day 1 Study Drug Accou~ 2006-10-20 2006-10-21     
       5 AA-AA-000-0000 0001-025XXX Day 1 Study Drug Admin~ 2006-10-20 2006-10-24     
       6 AA-AA-000-0000 0001-025XXX Day 1 Study Drug Admin~ 2006-10-20 2006-10-20     
       7 AA-AA-000-0000 0001-025XXX Day 1 Study Drug Admin~ 2006-10-20 2006-10-23     
       8 AA-AA-000-0000 0001-025XXX Day 1 Study Drug Admin~ 2006-10-20 2006-10-21     
       9 AA-AA-000-0000 0001-025XXX Day 1 Visit Date        2006-10-20 2006-10-22     
      10 AA-AA-000-0000 0001-025XXX Day 1 Vital Signs Perf~ 2006-10-20 2006-10-29     
      # i 247,452 more rows
      # i 1 more variable: data_entry_lag <int>
      
      $dfQUERY
      # A tibble: 42,259 x 14
         protocolname   subjectname visit      formoid fieldoid log_number datapointid
         <chr>          <chr>       <chr>      <chr>   <chr>         <int> <chr>      
       1 AA-AA-000-0000 0001-025XXX Day 1      Study ~ EXTRT             1 70         
       2 AA-AA-000-0000 0001-025XXX Day 1      Visit ~ VISITPE~          1 107        
       3 AA-AA-000-0000 0001-025XXX Unschedul~ Study ~ EXONGO            1 1153       
       4 AA-AA-000-0000 0001-025XXX Unschedul~ Study ~ EXPERM            1 1162       
       5 AA-AA-000-0000 0001-025XXX Unschedul~ Study ~ DATRT             1 1524       
       6 AA-AA-000-0000 0001-025XXX Unschedul~ Study ~ EXSTDAT           1 1540       
       7 AA-AA-000-0000 0001-025XXX Unschedul~ Study ~ EXTRT             1 1713       
       8 AA-AA-000-0000 0001-025XXX Unschedul~ Vital ~ DIABP             1 1727       
       9 AA-AA-000-0000 0001-025XXX Week 12    Study ~ EXENDAT           1 313        
      10 AA-AA-000-0000 0001-025XXX Week 12    Visit ~ PEPERF            1 329        
      # i 42,249 more rows
      # i 7 more variables: querystatus <chr>, created <date>, answered <date>,
      #   resolved <date>, dataextractiondate <date>, queryage <int>,
      #   markinggroup <chr>
      
      $dfENROLL
      # A tibble: 2,387 x 9
         studyid      siteid subjectid subjid enroll_dt  enrollyn sfreas country invid
         <chr>        <chr>  <chr>     <chr>  <date>     <chr>    <chr>  <chr>   <chr>
       1 AA-AA-000-0~ 5      X1670496~ "0496" 2013-11-26 Y        ""     US      0X167
       2 AA-AA-000-0~ 43     X159138X~ ""     2013-09-03 N        "Incl~ US      0X159
       3 AA-AA-000-0~ 5      X167101X~ ""     2011-08-30 N        "Incl~ US      0X167
       4 AA-AA-000-0~ 78     X0021350~ "1350" 2017-10-02 Y        ""     US      0X002
       5 AA-AA-000-0~ 12     X085142X~ ""     2014-04-06 N        "Incl~ US      0X085
       6 AA-AA-000-0~ 139    X0520539~ "0539" 2005-08-31 Y        ""     US      0X052
       7 AA-AA-000-0~ 162    X0490329~ "0329" 2007-09-26 Y        ""     US      0X049
       8 AA-AA-000-0~ 29     X1160429~ "0429" 2014-08-14 Y        ""     Japan   0X116
       9 AA-AA-000-0~ 143    X1531218~ "1218" 2004-05-23 Y        ""     US      0X153
      10 AA-AA-000-0~ 4      X044X067~ ""     2008-11-14 N        "Incl~ US      X044X
      # i 2,377 more rows
…
      $meta_site
      # A tibble: 176 x 14
         protocol_row_id site_num site_row_id    protocol       pi_number pi_last_name
         <chr>           <chr>    <chr>          <chr>          <chr>     <chr>       
       1 1-1G9113        10       123-1234-0X126 AA-AA-000-0000 0X126     Torres      
       2 1-1G9113        100      123-1234-X060X AA-AA-000-0000 X060X     Spangler    
       3 1-1G9113        101      123-1234-0X174 AA-AA-000-0000 0X174     Broughton   
       4 1-1G9113        102      123-1234-0X073 AA-AA-000-0000 0X073     Lester      
       5 1-1G9113        103      123-1234-0X176 AA-AA-000-0000 0X176     Salazar     
       6 1-1G9113        104      123-1234-0X140 AA-AA-000-0000 0X140     Rollins     
       7 1-1G9113        105      123-1234-0X179 AA-AA-000-0000 0X179     Terry       
       8 1-1G9113        106      123-1234-0X040 AA-AA-000-0000 0X040     Porter      
       9 1-1G9113        107      123-1234-0X072 AA-AA-000-0000 0X072     Lopez       
      10 1-1G9113        109      123-1234-0X127 AA-AA-000-0000 0X127     Pascual     
      # i 166 more rows
      # i 8 more variables: pi_first_name <chr>, site_status <chr>,
      #   is_satellite <chr>, account <chr>, site_active_dt <chr>, city <chr>,
      #   state <chr>, country <chr>
…
