Remove invalid Subject IDs — RemoveInvalidSubjectIDs • gsm
…
    Value

data.frame input data frame with invalid subject ID values removed

    Examples

RemoveInvalidSubjectIDs(
  clindata::rawplus_protdev,
  strIDCol = "subjid",
  bQuiet = FALSE
)
#> 
#> ℹ Removing invalid subject ID values from [ input ] data: "".
#> ℹ No invalid subject IDs found in [ input ] data.
#> # A tibble: 4,473 × 26
#>    invid scrnid subjid dv_dt dvdecod      dvterm impor…¹ cro_nsv count…² invna…³
#>    <chr> <chr>  <chr>  <chr> <chr>        <chr>  <chr>   <chr>   <chr>   <chr>  
#>  1 X055X 113    0496   ""    OTHER        ""     N       ""      AS      XXX    
#>  2 X108X 142    1350   ""    OTHER        ""     N       ""      OTH     XXX    
#>  3 X108X 142    1350   ""    OTHER        ""     N       ""      OTH     XXX    
#>  4 X108X 142    1350   ""    OTHER        ""     N       ""      OTH     XXX    
#>  5 X108X 142    1350   ""    OTHER        ""     N       ""      OTH     XXX    
#>  6 X108X 142    1350   ""    OTHER        ""     N       ""      OTH     XXX    
#>  7 X128X 112    0539   ""    OTHER TREAT… ""     N       ""      AS      XXX    
#>  8 X128X 112    0539   ""    OTHER TREAT… ""     N       ""      AS      XXX    
#>  9 X128X 112    0539   ""    OTHER TREAT… ""     N       ""      AS      XXX    
#> 10 X128X 112    0539   ""    OTHER TREAT… ""     N       ""      AS      XXX    
#> # … with 4,463 more rows, 16 more variables: subjinit_nsv <chr>,
#> #   idendate_nsv <chr>, visit_nsv <chr>, devdesc_nsv <chr>, devused_nsv <chr>,
#> #   repdatec_nsv <chr>, comments_nsv <chr>, gsidatec_nsv <chr>,
#> #   mmdatec_nsv <chr>, addatec_nsv <chr>, retdatec_nsv <chr>,
#> #   tmfdatec_nsv <chr>, mmpddatec_nsv <chr>, revwdatec_nsv <chr>,
#> #   devdatec_nsv <chr>, idendatec_nsv <chr>, and abbreviated variable names
#> #   ¹​importnt, ²​country_nsv, ³​invnam_nsv
…
